{
  "_meta": {
    "columns": {},
    "tables": {}
  },
  "dialect": "sqlite",
  "enums": {},
  "id": "cdb7931b-dede-42b7-bdd3-4aa6a6007dc5",
  "prevId": "00000000-0000-0000-0000-000000000000",
  "tables": {
    "template": {
      "columns": {
        "content": {
          "autoincrement": false,
          "name": "content",
          "notNull": true,
          "primaryKey": false,
          "type": "text"
        },
        "id": {
          "autoincrement": false,
          "name": "id",
          "notNull": true,
          "primaryKey": true,
          "type": "text"
        }
      },
      "compositePrimaryKeys": {},
      "foreignKeys": {},
      "indexes": {},
      "name": "template",
      "uniqueConstraints": {}
    }
  },
  "version": "6"
}
