{
  "_meta": {
    "columns": {},
    "tables": {
      "\"template\"": "\"route\""
    }
  },
  "dialect": "sqlite",
  "enums": {},
  "id": "6f1dc930-49f8-4690-a0dc-91456d006b21",
  "prevId": "cdb7931b-dede-42b7-bdd3-4aa6a6007dc5",
  "tables": {
    "route": {
      "columns": {
        "content": {
          "autoincrement": false,
          "name": "content",
          "notNull": true,
          "primaryKey": false,
          "type": "text"
        },
        "id": {
          "autoincrement": false,
          "name": "id",
          "notNull": true,
          "primaryKey": true,
          "type": "text"
        }
      },
      "compositePrimaryKeys": {},
      "foreignKeys": {},
      "indexes": {},
      "name": "route",
      "uniqueConstraints": {}
    }
  },
  "version": "6"
}
