{
  "_meta": {
    "columns": {},
    "tables": {}
  },
  "dialect": "sqlite",
  "enums": {},
  "id": "29260de7-c7d9-4941-b503-0b706b7009a4",
  "prevId": "6f1dc930-49f8-4690-a0dc-91456d006b21",
  "tables": {
    "route": {
      "columns": {
        "id": {
          "autoincrement": false,
          "name": "id",
          "notNull": true,
          "primaryKey": false,
          "type": "text"
        },
        "method": {
          "autoincrement": false,
          "name": "method",
          "notNull": true,
          "primaryKey": false,
          "type": "text"
        },
        "name": {
          "autoincrement": false,
          "name": "name",
          "notNull": false,
          "primaryKey": false,
          "type": "text"
        },
        "type": {
          "autoincrement": false,
          "name": "type",
          "notNull": true,
          "primaryKey": false,
          "type": "text"
        }
      },
      "compositePrimaryKeys": {
        "route_id_method_pk": {
          "columns": [
            "id",
            "method"
          ],
          "name": "route_id_method_pk"
        }
      },
      "foreignKeys": {
        "route_method_route_method_id_fk": {
          "columnsFrom": [
            "method"
          ],
          "columnsTo": [
            "id"
          ],
          "name": "route_method_route_method_id_fk",
          "onDelete": "no action",
          "onUpdate": "no action",
          "tableFrom": "route",
          "tableTo": "route_method"
        },
        "route_type_route_type_id_fk": {
          "columnsFrom": [
            "type"
          ],
          "columnsTo": [
            "id"
          ],
          "name": "route_type_route_type_id_fk",
          "onDelete": "no action",
          "onUpdate": "no action",
          "tableFrom": "route",
          "tableTo": "route_type"
        }
      },
      "indexes": {},
      "name": "route",
      "uniqueConstraints": {}
    },
    "route_method": {
      "columns": {
        "id": {
          "autoincrement": false,
          "name": "id",
          "notNull": true,
          "primaryKey": true,
          "type": "text"
        }
      },
      "compositePrimaryKeys": {},
      "foreignKeys": {},
      "indexes": {},
      "name": "route_method",
      "uniqueConstraints": {}
    },
    "route_type": {
      "columns": {
        "id": {
          "autoincrement": false,
          "name": "id",
          "notNull": true,
          "primaryKey": true,
          "type": "text"
        }
      },
      "compositePrimaryKeys": {},
      "foreignKeys": {},
      "indexes": {},
      "name": "route_type",
      "uniqueConstraints": {}
    }
  },
  "version": "6"
}
